[
  {
    "title": "Actrius",
    "cast": ["Núria Espert","Rosa Maria Sardà","Anna Lizaran","Mercè Pons"],
    "directors": ["Ventura Pons"],
    "producers": ["Ventura Pons"],
    "companies": ["Buena Vista International"],
    "year": 1997
  },
  {
    "title": "Spain in Flames",
    "cast": [],
    "directors": ["Helen van Dongen"],
    "year": 1937
  },

  {
    "title":"Blazing Saddles",
    "cast":["[[Cleavon Little]]","[[Gene Wilder]]","[[Slim Pickens]]","[[Alex Karras]]","[[Mel Brooks]]","[[Harvey Korman]]","[[Madeline Kahn]]","[[Burton Gilliam]]","[[David Huddleston]]","[[Liam Dunn]]","[[John Hillerman]]","[[George Furth]]","[[Jack Starrett|Claude Ennis Starrett, Jr.]]","[[Carol Arthur]]","Richard Collier","[[Charles McGregor]]","[[Robyn Hilton]]","[[Don Megowan]]","[[Dom DeLuise]]","[[Count Basie]]","[[Rodney Allen Rippy]]","[[Robert Ridgely]]","[[Ralph Manza]]"],
    "directors":["[[Mel Brooks]]"],
    "producers":["[[Michael Hertzberg]]"],
    "companies":["Crossbow Productions","[[Warner Bros.]]"],
    "year":1974
   },

  {
    "title":"Blue Velvet (film)",
    "cast":["[[Kyle MacLachlan]]","[[Isabella Rossellini]]","[[Dennis Hopper]]","[[Laura Dern]]","[[Hope Lange]]","[[George Dickerson]]","[[Dean Stockwell]]","[[Priscilla Pointer]]","[[Frances Bay]]","Jack Harvey","Ken Stovitz","[[Brad Dourif]]","[[Jack Nance]]","J. Michael Hunter","Dick Green","[[Fred Pickler]]","[[Megan Mullally]]","Jon Jon Snipes"],
    "directors":["[[David Lynch]]"],
    "producers":["[[Fred C. Caruso|Fred Caruso]]"],
    "companies":["[[De Laurentiis Entertainment Group]]"],
    "year":1986
    }
]
